[
    {
      "idCharger": 1,
      "numberOfConnectors": 4,
      "connector1": {
        "idConnector": "c1",
        "SoC": 20, 
        "connectorState": "Charging",
        "idVehicleCharging": "1234",
        "typeVehicleCharging": "Bus",
        "minValue": 0,
        "maxValue": 150,
        "currentValue": 30
      },
      "connector2": {
        "idConnector": "c2",
        "SoC": 30, 
        "connectorState": "Charging", 
        "idVehicleCharging": "1234",
        "typeVehicleCharging": "Car", 
        "minValue": 0,
        "maxValue": 200,
        "currentValue": 60
      },
      "connector3": {
        "idConnector": "c3",
        "SoC": 100,
        "connectorState": "Charging", 
        "idVehicleCharging": "1234",
        "typeVehicleCharging": "Van", 
        "minValue": 0,
        "maxValue": 200,
        "currentValue": 200
      },
      "connector4": {
        "idConnector": "c4",
        "SoC": 50, 
        "connectorState": "in maintenance",
        "idVehicleCharging": "1234",
        "typeVehicleCharging": "Car",
        "minValue": 0,
        "maxValue": 200,
        "currentValue": 100
      }
    },
    {
      "idCharger": 2,
      "numberOfConnectors": 2,
      "connector1": {
        "idConnector": "c5",
        "SoC": 60, 
        "connectorState": "Charging",
        "idVehicleCharging": "1234",
        "typeVehicleCharging": "Car",
        "minValue": 0,
        "maxValue": 100,
        "currentValue": 60
      },
      "connector2": {
        "idConnector": "c6",
        "SoC": 70, 
        "connectorState": "available", 
        "idVehicleCharging": "1234",
        "typeVehicleCharging": "Bus",
        "minValue": 0,
        "maxValue": 200,
        "currentValue": 140
      }
    },
    {
      "idCharger": 3,
      "numberOfConnectors": 3,
      "connector1": {
        "idConnector": "c7",
        "SoC": 80, 
        "connectorState": "Charging",
        "idVehicleCharging": "1234",
        "typeVehicleCharging": "Bus",
        "minValue": 0,
        "maxValue": 100,
        "currentValue": 80
      },
      "connector2": {
        "idConnector": "c8",
        "SoC": 90, 
        "connectorState": "available", 
        "idVehicleCharging": "1234",
        "typeVehicleCharging": "Van", 
        "minValue": 0,
        "maxValue": 100,
        "currentValue": 90
      },
      "connector3": {
        "idConnector": "c9",
        "SoC": 100, 
        "connectorState": "available", 
        "idVehicleCharging": "1234",
        "typeVehicleCharging": "Car", 
        "minValue": 0,
        "maxValue": 100,
        "currentValue": 150
      }
    },
    {
      "idCharger": 4,
      "numberOfConnectors": 1,
      "connector1": {
        "idConnector": "c10",
        "SoC": 45, 
        "connectorState": "Charging",
        "idVehicleCharging": "1234",
        "typeVehicleCharging": "Car",
        "minValue": 0,
        "maxValue": 100,
        "currentValue": 45
      }
    },
    {
      "idCharger": 5,
      "numberOfConnectors": 4,
      "connector1": {
        "idConnector": "c11",
        "SoC": 20, 
        "connectorState": "Charging",
        "idVehicleCharging": "1234",
        "typeVehicleCharging": "Car",
        "minValue": 0,
        "maxValue": 150,
        "currentValue": 30
      },
      "connector2": {
        "idConnector": "c12",
        "SoC": 30, 
        "connectorState": "Charging", 
        "idVehicleCharging": "1234",
        "typeVehicleCharging": "Car", 
        "minValue": 0,
        "maxValue": 200,
        "currentValue": 60
      },
      "connector3": {
        "idConnector": "c13",
        "SoC": 100,
        "connectorState": "Charging", 
        "idVehicleCharging": "1234",
        "typeVehicleCharging": "Car", 
        "minValue": 0,
        "maxValue": 200,
        "currentValue": 200
      },
      "connector4": {
        "idConnector": "c14",
        "SoC": 50, 
        "connectorState": "Charging",
        "idVehicleCharging": "1234",
        "typeVehicleCharging": "Car",
        "minValue": 0,
        "maxValue": 200,
        "currentValue": 100
      }
    },
    {
      "idCharger": 6,
      "numberOfConnectors": 4,
      "connector1": {
        "idConnector": "c15",
        "SoC": 20, 
        "connectorState": "Charging",
        "idVehicleCharging": "1234",
        "typeVehicleCharging": "Bus",
        "minValue": 0,
        "maxValue": 150,
        "currentValue": 30
      },
      "connector2": {
        "idConnector": "c16",
        "SoC": 30, 
        "connectorState": "Charging", 
        "idVehicleCharging": "1234",
        "typeVehicleCharging": "Bus", 
        "minValue": 0,
        "maxValue": 200,
        "currentValue": 60
      },
      "connector3": {
        "idConnector": "c17",
        "SoC": 100,
        "connectorState": "Charging", 
        "idVehicleCharging": "1234",
        "typeVehicleCharging": "Bus", 
        "minValue": 0,
        "maxValue": 200,
        "currentValue": 200
      },
      "connector4": {
        "idConnector": "c18",
        "SoC": 50, 
        "connectorState": "in maintenance",
        "idVehicleCharging": "1234",
        "typeVehicleCharging": "Car",
        "minValue": 0,
        "maxValue": 200,
        "currentValue": 100
      }
    },
    {
      "idCharger": 7,
      "numberOfConnectors": 2,
      "connector1": {
        "idConnector": "c19",
        "SoC": 20, 
        "connectorState": "Charging",
        "idVehicleCharging": "1234",
        "typeVehicleCharging": "Van",
        "minValue": 0,
        "maxValue": 150,
        "currentValue": 30
      },
      "connector2": {
        "idConnector": "c20",
        "SoC": 80, 
        "connectorState": "Charging", 
        "idVehicleCharging": "1234",
        "typeVehicleCharging": "Bus", 
        "minValue": 0,
        "maxValue": 200,
        "currentValue": 70
      }
     
    }
  ]